%!PS-Adobe-2.0 EPSF-2.0
%%BoundingBox: 0 0 454 425
%%Title: /exp/babar/hoecker/ckmfitter/moriond05/alpha_all_mo
%%Creator: HIGZ Version 1.27/03
%%CreationDate: 2005/03/10   14.47
%%EndComments
%%BeginProlog
80 dict begin
/s {stroke} def /l {lineto} def /m {moveto} def /t {translate} def
/sw {stringwidth} def /r {rotate} def /rl {roll}  def /R {repeat} def
/d {rlineto} def /rm {rmoveto} def /gr {grestore} def /f {eofill} def
/c {setrgbcolor} def /lw {setlinewidth} def /sd {setdash} def
/cl {closepath} def /sf {scalefont setfont} def /black {0 setgray} def
/box {m dup 0 exch d exch 0 d 0 exch neg d cl} def
/NC{systemdict begin initclip end}def/C{NC box clip newpath}def
/bl {box s} def /bf {box f} def /Y { 0 exch d} def /X { 0 d} def 
/mp {newpath /y exch def /x exch def} def
/side {[w .77 mul w .23 mul] .385 w mul sd w 0 l currentpoint t -144 r} def
/mr {mp x y w2 0 360 arc} def /m24 {mr s} def /m20 {mr f} def
/mb {mp x y w2 add m w2 neg 0 d 0 w neg d w 0 d 0 w d cl} def
/mt {mp x y w2 add m w2 neg w neg d w 0 d cl} def
/m21 {mb f} def /m25 {mb s} def /m22 {mt f} def /m26{mt s} def
/m23 {mp x y w2 sub m w2 w d w neg 0 d cl f} def
/m27 {mp x y w2 add m w3 neg w2 neg d w3 w2 neg d w3 w2 d cl s} def
/m28 {mp x w2 sub y w2 sub w3 add m w3 0 d 0 w3 neg d w3 0 d 0 w3 d w3 0 d
 0 w3 d w3 neg 0 d 0 w3 d w3 neg 0 d
 0 w3 neg d w3 neg 0 d cl s } def
/m29 {mp gsave x w2 sub y w2 add w3 sub m currentpoint t
 4 {side} repeat cl fill gr} def
/m30 {mp gsave x w2 sub y w2 add w3 sub m currentpoint t
 5 {side} repeat s gr} def
/m31 {mp x y w2 sub m 0 w d x w2 sub y m w 0 d
 x w2 sub y w2 add m w w neg d x w2 sub y w2
 sub m w w d s} def
/m2 {mp x y w2 sub m 0 w d x w2 sub y m w 0 d s} def
/m5 {mp x w2 sub y w2 sub m w w d x w2 sub y w2 add m w w neg d s} def
/reencdict 24 dict def /ReEncode {reencdict begin /nco&na exch def
/nfnam exch def /basefontname exch def /basefontdict basefontname findfont def
/newfont basefontdict maxlength dict def basefontdict {exch dup /FID ne
{dup /Encoding eq {exch dup length array copy newfont 3 1 roll put} {exch
newfont 3 1 roll put} ifelse} {pop pop} ifelse } forall newfont
/FontName nfnam put nco&na aload pop nco&na length 2 idiv {newfont
/Encoding get 3 1 roll put} repeat nfnam newfont definefont pop end } def
/accvec [ 176 /agrave 181 /Agrave 190 /acircumflex 192 /Acircumflex
201 /adieresis 204 /Adieresis 209 /ccedilla 210 /Ccedilla 211 /eacute
212 /Eacute 213 /egrave 214 /Egrave 215 /ecircumflex 216 /Ecircumflex
217 /edieresis 218 /Edieresis 219 /icircumflex 220 /Icircumflex
221 /idieresis 222 /Idieresis 223 /ntilde 224 /Ntilde 226 /ocircumflex
228 /Ocircumflex 229 /odieresis 230 /Odieresis 231 /ucircumflex 236 /Ucircumflex
237 /udieresis 238 /Udieresis 239 /aring 242 /Aring 243 /ydieresis
244 /Ydieresis 246 /aacute 247 /Aacute 252 /ugrave 253 /Ugrave] def
/Times-Roman /Times-Roman accvec ReEncode
/Times-Italic /Times-Italic accvec ReEncode
/Times-Bold /Times-Bold accvec ReEncode
/Times-BoldItalic /Times-BoldItalic accvec ReEncode
/Helvetica /Helvetica accvec ReEncode
/Helvetica-Oblique /Helvetica-Oblique accvec ReEncode
/Helvetica-Bold /Helvetica-Bold accvec ReEncode
/Helvetica-BoldOblique /Helvetica-BoldOblique  accvec ReEncode
/Courier /Courier accvec ReEncode
/Courier-Oblique /Courier-Oblique accvec ReEncode
/Courier-Bold /Courier-Bold accvec ReEncode
/Courier-BoldOblique /Courier-BoldOblique accvec ReEncode
/oshow {gsave [] 0 sd true charpath stroke gr} def
/stwn { /fs exch def /fn exch def /text exch def fn findfont fs sf
 text sw pop xs add /xs exch def} def
/stwb { /fs exch def /fn exch def /nbas exch def /textf exch def
textf length /tlen exch def nbas tlen gt {/nbas tlendef} if
fn findfont fs sf textf dup length nbas sub nbas getinterval sw
pop neg xs add /xs exch def} def
/accspe [ 65 /plusminus 66 /bar 67 /existential 68 /universal
69 /exclam 70 /numbersign 71 /greater 72 /question 73 /integral
74 /colon 75 /semicolon 76 /less 77 /bracketleft 78 /bracketright
79 /greaterequal 80 /braceleft 81 /braceright 82 /radical
83 /spade 84 /heart 85 /diamond 86 /club 87 /lessequal
88 /multiply 89 /percent 90 /infinity 48 /circlemultiply 49 /circleplus
50 /emptyset 51 /lozenge 52 /bullet 53 /arrowright 54 /arrowup
55 /arrowleft 56 /arrowdown 57 /arrowboth 48 /degree 44 /comma 43 /plus
 45 /angle 42 /angleleft 47 /divide 61 /notequal 40 /equivalence 41 /second
 97 /approxequal 98 /congruent 99 /perpendicular 100 /partialdiff 101 /florin
 102 /intersection 103 /union 104 /propersuperset 105 /reflexsuperset
 106 /notsubset 107 /propersubset 108 /reflexsubset 109 /element 110 /notelement
 111 /gradient 112 /logicaland 113 /logicalor 114 /arrowdblboth
 115 /arrowdblleft 116 /arrowdblup 117 /arrowdblright 118 /arrowdbldown
 119 /ampersand 120 /omega1 121 /similar 122 /aleph ] def
/Symbol /Special accspe ReEncode
%%EndProlog
newpath  gsave  .25 .25 scale  gsave 0 0 t black [] 0 sd 1 lw 2 lw 1489 1345 270
 323 bl 1489 1345 270 323 C NC 1 lw 270 323 m 1345 Y s 302 323 m -32 X s 286 372
 m -16 X s 286 420 m -16 X s 286 468 m -16 X s 302 516 m -32 X s 286 564 m -16 X
 s 286 612 m -16 X s 286 660 m -16 X s 302 708 m -32 X s 286 756 m -16 X s 286
 804 m -16 X s 286 852 m -16 X s 302 900 m -32 X s 286 948 m -16 X s 286 996 m
 -16 X s 286 1045 m -16 X s 302 1093 m -32 X s 286 1141 m -16 X s 286 1189 m -16
 X s 286 1237 m -16 X s 302 1285 m -32 X s 286 1333 m -16 X s 286 1381 m -16 X s
 286 1429 m -16 X s 302 1477 m -32 X s 302 1477 m -32 X s 286 1525 m -16 X s 286
 1573 m -16 X s 286 1621 m -16 X s
 /xs 0 def 
(0)
 /Helvetica     59 stwn 
 gsave  247 302
 t   0 r  xs neg 0 t 0 0 m
 /Helvetica findfont   59 sf 0    0 m 
(0)
 show 
 gr 
 /xs 0 def 
(0.2)
 /Helvetica     59 stwn 
 gsave  247 494
 t   0 r  xs neg 0 t 0 0 m
 /Helvetica findfont   59 sf 0    0 m 
(0.2)
 show 
 gr 
 /xs 0 def 
(0.4)
 /Helvetica     59 stwn 
 gsave  247 686
 t   0 r  xs neg 0 t 0 0 m
 /Helvetica findfont   59 sf 0    0 m 
(0.4)
 show 
 gr 
 /xs 0 def 
(0.6)
 /Helvetica     59 stwn 
 gsave  247 879
 t   0 r  xs neg 0 t 0 0 m
 /Helvetica findfont   59 sf 0    0 m 
(0.6)
 show 
 gr 
 /xs 0 def 
(0.8)
 /Helvetica     59 stwn 
 gsave  247 1071
 t   0 r  xs neg 0 t 0 0 m
 /Helvetica findfont   59 sf 0    0 m 
(0.8)
 show 
 gr 
 /xs 0 def 
(1)
 /Helvetica     59 stwn 
 gsave  247 1263
 t   0 r  xs neg 0 t 0 0 m
 /Helvetica findfont   59 sf 0    0 m 
(1)
 show 
 gr 
 /xs 0 def 
(1.2)
 /Helvetica     59 stwn 
 gsave  247 1456
 t   0 r  xs neg 0 t 0 0 m
 /Helvetica findfont   59 sf 0    0 m 
(1.2)
 show 
 gr  270 323 m 1489 X s 270 356 m -33 Y s 311 340 m -17 Y s 352 340 m -17 Y s
 394 340 m -17 Y s 435 356 m -33 Y s 476 340 m -17 Y s 518 340 m -17 Y s 559 340
 m -17 Y s 601 356 m -33 Y s 642 340 m -17 Y s 683 340 m -17 Y s 725 340 m -17 Y
 s 766 356 m -33 Y s 808 340 m -17 Y s 849 340 m -17 Y s 890 340 m -17 Y s 932
 356 m -33 Y s 973 340 m -17 Y s 1014 340 m -17 Y s 1056 340 m -17 Y s 1097 356
 m -33 Y s 1139 340 m -17 Y s 1180 340 m -17 Y s 1221 340 m -17 Y s 1263 356 m
 -33 Y s 1304 340 m -17 Y s 1345 340 m -17 Y s 1387 340 m -17 Y s 1428 356 m -33
 Y s 1470 340 m -17 Y s 1511 340 m -17 Y s 1552 340 m -17 Y s 1594 356 m -33 Y s
 1635 340 m -17 Y s 1676 340 m -17 Y s 1718 340 m -17 Y s 1759 356 m -33 Y s
 /xs 0 def 
(0)
 /Helvetica     59 stwn 
 gsave  270 258
 t   0 r  xs 2 div neg 0 t 0 0 m
 /Helvetica findfont   59 sf 0    0 m 
(0)
 show 
 gr 
 /xs 0 def 
(20)
 /Helvetica     59 stwn 
 gsave  435 258
 t   0 r  xs 2 div neg 0 t 0 0 m
 /Helvetica findfont   59 sf 0    0 m 
(20)
 show 
 gr 
 /xs 0 def 
(40)
 /Helvetica     59 stwn 
 gsave  601 258
 t   0 r  xs 2 div neg 0 t 0 0 m
 /Helvetica findfont   59 sf 0    0 m 
(40)
 show 
 gr 
 /xs 0 def 
(60)
 /Helvetica     59 stwn 
 gsave  766 258
 t   0 r  xs 2 div neg 0 t 0 0 m
 /Helvetica findfont   59 sf 0    0 m 
(60)
 show 
 gr 
 /xs 0 def 
(80)
 /Helvetica     59 stwn 
 gsave  932 258
 t   0 r  xs 2 div neg 0 t 0 0 m
 /Helvetica findfont   59 sf 0    0 m 
(80)
 show 
 gr 
 /xs 0 def 
(100)
 /Helvetica     59 stwn 
 gsave  1097 258
 t   0 r  xs 2 div neg 0 t 0 0 m
 /Helvetica findfont   59 sf 0    0 m 
(100)
 show 
 gr 
 /xs 0 def 
(120)
 /Helvetica     59 stwn 
 gsave  1263 258
 t   0 r  xs 2 div neg 0 t 0 0 m
 /Helvetica findfont   59 sf 0    0 m 
(120)
 show 
 gr 
 /xs 0 def 
(140)
 /Helvetica     59 stwn 
 gsave  1428 258
 t   0 r  xs 2 div neg 0 t 0 0 m
 /Helvetica findfont   59 sf 0    0 m 
(140)
 show 
 gr 
 /xs 0 def 
(160)
 /Helvetica     59 stwn 
 gsave  1594 258
 t   0 r  xs 2 div neg 0 t 0 0 m
 /Helvetica findfont   59 sf 0    0 m 
(160)
 show 
 gr 
 /xs 0 def 
(180)
 /Helvetica     59 stwn 
 gsave  1759 258
 t   0 r  xs 2 div neg 0 t 0 0 m
 /Helvetica findfont   59 sf 0    0 m 
(180)
 show 
 gr  1489 1345 270 323 C NC 1759 323 m 1345 Y s 1727 323 m 32 X s 1743 372 m 16
 X s 1743 420 m 16 X s 1743 468 m 16 X s 1727 516 m 32 X s 1743 564 m 16 X s
 1743 612 m 16 X s 1743 660 m 16 X s 1727 708 m 32 X s 1743 756 m 16 X s 1743
 804 m 16 X s 1743 852 m 16 X s 1727 900 m 32 X s 1743 948 m 16 X s 1743 996 m
 16 X s 1743 1045 m 16 X s 1727 1093 m 32 X s 1743 1141 m 16 X s 1743 1189 m 16
 X s 1743 1237 m 16 X s 1727 1285 m 32 X s 1743 1333 m 16 X s 1743 1381 m 16 X s
 1743 1429 m 16 X s 1727 1477 m 32 X s 1727 1477 m 32 X s 1743 1525 m 16 X s
 1743 1573 m 16 X s 1743 1621 m 16 X s 270 1668 m 1489 X s 270 1636 m 32 Y s 311
 1652 m 16 Y s 352 1652 m 16 Y s 394 1652 m 16 Y s 435 1636 m 32 Y s 476 1652 m
 16 Y s 518 1652 m 16 Y s 559 1652 m 16 Y s 601 1636 m 32 Y s 642 1652 m 16 Y s
 683 1652 m 16 Y s 725 1652 m 16 Y s 766 1636 m 32 Y s 808 1652 m 16 Y s 849
 1652 m 16 Y s 890 1652 m 16 Y s 932 1636 m 32 Y s 973 1652 m 16 Y s 1014 1652 m
 16 Y s 1056 1652 m 16 Y s 1097 1636 m 32 Y s 1139 1652 m 16 Y s 1180 1652 m 16
 Y s 1221 1652 m 16 Y s 1263 1636 m 32 Y s 1304 1652 m 16 Y s 1345 1652 m 16 Y s
 1387 1652 m 16 Y s 1428 1636 m 32 Y s 1470 1652 m 16 Y s 1511 1652 m 16 Y s
 1552 1652 m 16 Y s 1594 1636 m 32 Y s 1635 1652 m 16 Y s 1676 1652 m 16 Y s
 1718 1652 m 16 Y s 1759 1636 m 32 Y s 1489 1345 270 323 C 0.6 1 0.2 c 273 396 m
 8 -3 d 6 -3 d 1 -1 d 7 -5 d 1 X 2 -1 d 4 -2 d 1 X 3 -2 d 5 -3 d 7 -4 d 3 -2 d 3
 -1 d 1 -1 d 2 -1 d 5 -4 d 1 -1 d 1 -1 d 3 -1 d 2 -1 d 1 X 2 -1 d 6 -5 d 2 -2 d
 5 -2 d 8 -5 d 7 -4 d 3 -1 d 5 -2 d 7 -2 d 7 -3 d 6 -2 d 2 X 6 -2 d 1 X 7 -1 d 1
 X 4 -1 d 3 X 8 -1 d 7 -1 d 45 X 7 -1 d 8 1 d 7 -1 d 134 X -365 X f 4 lw 0 0.7 0
 c 273 396 m 8 -3 d 6 -3 d 1 -1 d 7 -5 d 1 X 2 -1 d 4 -2 d 1 X 3 -2 d 5 -3 d 7
 -4 d 3 -2 d 3 -1 d 1 -1 d 2 -1 d 5 -4 d 1 -1 d 1 -1 d 3 -1 d 2 -1 d 1 X 2 -1 d
 6 -5 d 2 -2 d 5 -2 d 8 -5 d 7 -4 d 3 -1 d 5 -2 d 7 -2 d 7 -3 d 6 -2 d 2 X 6 -2
 d 1 X 7 -1 d 1 X 4 -1 d 3 X 8 -1 d 7 -1 d 45 X 7 -1 d 8 1 d 7 -1 d 134 X s 0.6
 1 0.2 c 1 lw 638 323 m 164 X 8 1 d 44 X 8 1 d 7 X 8 1 d 7 1 d 8 1 d 7 2 d 7 2 d
 8 2 d 7 2 d 8 3 d 7 3 d 2 2 d 6 5 d 6 6 d 1 1 d 5 5 d 3 4 d 2 3 d 4 8 d 1 1 d 5
 9 d 2 4 d 3 7 d 4 6 d 1 3 d 3 7 d 2 7 d 2 5 d 3 8 d 3 10 d 2 4 d 3 10 d 3 10 d
 1 5 d -149 Y -365 X f 4 lw 0 0.7 0 c 638 323 m 164 X 8 1 d 44 X 8 1 d 7 X 8 1 d
 7 1 d 8 1 d 7 2 d 7 2 d 8 2 d 7 2 d 8 3 d 7 3 d 2 2 d 6 5 d 6 6 d 1 1 d 5 5 d 3
 4 d 2 3 d 4 8 d 1 1 d 5 9 d 2 4 d 3 7 d 4 6 d 1 3 d 3 7 d 2 7 d 2 5 d 3 8 d 3
 10 d 2 4 d 3 10 d 3 10 d 1 5 d s 0.6 1 0.2 c 1 lw 1003 472 m 8 30 d 7 33 d 6 30
 d 2 8 d 5 29 d 2 14 d 4 27 d 3 23 d 5 32 d 3 28 d 4 34 d 3 33 d 6 54 d 2 17 d 2
 28 d 5 63 d 7 85 d 1 7 d 3 40 d 2 43 d 2 26 d 1 17 d 2 32 d 1 38 d 1 18 d 1 11
 d 1 7 d 1 6 d 2 Y 1 X 1 -4 d 1 -5 d 1 -10 d 3 -30 d 1 -14 d 2 -22 d 5 -75 d 3
 -50 d 4 -48 d 4 -54 d 3 -36 d 3 -30 d 5 -47 d 6 -61 d 1 -12 d 6 -54 d 1 -9 d 1
 -3 d 1 -4 d 2 -3 d 2 1 d 2 5 d 2 4 d 2 10 d 3 19 d 1 3 d 4 19 d 3 10 d 4 9 d 4
 7 d 3 4 d 4 2 d 3 -1 d 4 -3 d 7 -5 d 1 -2 d 4 -6 d 3 -8 d 8 -25 d 6 -20 d 1 -4
 d 3 -13 d 5 -22 d 7 -36 d 8 -32 d 7 -38 d 3 -11 d 4 -16 d 8 -33 d 6 -24 d 1 -5
 d 4 -11 d 4 -9 d 7 -19 d 8 -21 d 4 -10 d 3 -5 d 8 -15 d 7 -10 d 8 -11 d 7 -12 d
 7 -9 d 8 -6 d 7 -5 d 8 -6 d 7 -5 d -28 Y -365 X f 4 lw 0 0.7 0 c 1003 472 m 8
 30 d 7 33 d 6 30 d 2 8 d 5 29 d 2 14 d 4 27 d 3 23 d 5 32 d 3 28 d 4 34 d 3 33
 d 6 54 d 2 17 d 2 28 d 5 63 d 7 85 d 1 7 d 3 40 d 2 43 d 2 26 d 1 17 d 2 32 d 1
 38 d 1 18 d 1 11 d 1 7 d 1 6 d 2 Y 1 X 1 -4 d 1 -5 d 1 -10 d 3 -30 d 1 -14 d 2
 -22 d 5 -75 d 3 -50 d 4 -48 d 4 -54 d 3 -36 d 3 -30 d 5 -47 d 6 -61 d 1 -12 d 6
 -54 d 1 -9 d 1 -3 d 1 -4 d 2 -3 d 2 1 d 2 5 d 2 4 d 2 10 d 3 19 d 1 3 d 4 19 d
 3 10 d 4 9 d 4 7 d 3 4 d 4 2 d 3 -1 d 4 -3 d 7 -5 d 1 -2 d 4 -6 d 3 -8 d 8 -25
 d 6 -20 d 1 -4 d 3 -13 d 5 -22 d 7 -36 d 8 -32 d 7 -38 d 3 -11 d 4 -16 d 8 -33
 d 6 -24 d 1 -5 d 4 -11 d 4 -9 d 7 -19 d 8 -21 d 4 -10 d 3 -5 d 8 -15 d 7 -10 d
 8 -11 d 7 -12 d 7 -9 d 8 -6 d 7 -5 d 8 -6 d 7 -5 d s 0.6 1 0.2 c 1 lw 1368 351
 m 8 -5 d 6 -5 d 1 -1 d 4 X 4 2 d 7 1 d 2 1 d 4 4 d 1 X 3 1 d 5 X 7 1 d 2 1 d 3
 3 d 2 2 d 1 X 3 2 d 4 1 d 8 2 d 2 1 d 4 3 d 1 1 d 2 X 5 1 d 1 X 2 2 d 5 3 d 6 5
 d 1 1 d 3 X 4 1 d 1 X 2 2 d 4 3 d 1 1 d 2 1 d 5 X 1 1 d 1 1 d 3 2 d 3 4 d 8 7 d
 4 5 d 3 3 d 8 8 d 4 6 d 3 3 d 8 9 d 7 9 d 6 7 d 1 2 d 4 3 d 4 2 d 7 4 d 4 3 d 3
 2 d 1 X 3 1 d 4 2 d 6 2 d 3 X 6 -3 d 6 -2 d 2 -1 d 7 -7 d 6 -5 d 1 -1 d 4 -1 d
 1 X 2 1 d 1 1 d 1 1 d 1 3 d 2 4 d 3 7 d 8 17 d 6 14 d 1 2 d 4 8 d 3 5 d 1 1 d 2
 4 d 4 5 d 1 1 d 4 5 d 3 2 d 1 1 d 2 1 d 3 1 d 5 X 2 -1 d 2 -2 d 3 -2 d 3 -4 d 2
 -3 d 4 -6 d 3 -5 d 3 -6 d 5 -9 d 7 -16 d 8 -16 d 7 -16 d -127 Y -365 X f 4 lw 0
 0.7 0 c 1368 351 m 8 -5 d 6 -5 d 1 -1 d 4 X 4 2 d 7 1 d 2 1 d 4 4 d 1 X 3 1 d 5
 X 7 1 d 2 1 d 3 3 d 2 2 d 1 X 3 2 d 4 1 d 8 2 d 2 1 d 4 3 d 1 1 d 2 X 5 1 d 1 X
 2 2 d 5 3 d 6 5 d 1 1 d 3 X 4 1 d 1 X 2 2 d 4 3 d 1 1 d 2 1 d 5 X 1 1 d 1 1 d 3
 2 d 3 4 d 8 7 d 4 5 d 3 3 d 8 8 d 4 6 d 3 3 d 8 9 d 7 9 d 6 7 d 1 2 d 4 3 d 4 2
 d 7 4 d 4 3 d 3 2 d 1 X 3 1 d 4 2 d 6 2 d 3 X 6 -3 d 6 -2 d 2 -1 d 7 -7 d 6 -5
 d 1 -1 d 4 -1 d 1 X 2 1 d 1 1 d 1 1 d 1 3 d 2 4 d 3 7 d 8 17 d 6 14 d 1 2 d 4 8
 d 3 5 d 1 1 d 2 4 d 4 5 d 1 1 d 4 5 d 3 2 d 1 1 d 2 1 d 3 1 d 5 X 2 -1 d 2 -2 d
 3 -2 d 3 -4 d 2 -3 d 4 -6 d 3 -5 d 3 -6 d 5 -9 d 7 -16 d 8 -16 d 7 -16 d s 0.6
 1 0.2 c 1 lw 1733 450 m 3 -5 d 2 -4 d 2 -5 d 1 -1 d 1 -2 d 1 -2 d 2 -3 d 1 -2 d
 1 -1 d -2 Y 1 -1 d 1 -3 d 1 -2 d 1 -3 d 1 -3 d 1 -3 d 1 -3 d 1 -3 d 1 -2 d -77
 Y -23 X f 4 lw 0 0.7 0 c 1733 450 m 3 -5 d 2 -4 d 2 -5 d 1 -1 d 1 -2 d 1 -2 d 2
 -3 d 1 -2 d 1 -1 d -2 Y 1 -1 d 1 -3 d 1 -2 d 1 -3 d 1 -3 d 1 -3 d 1 -3 d 1 -3 d
 1 -2 d s NC 1 lw black 270 323 m 1345 Y s 302 323 m -32 X s 286 372 m -16 X s
 286 420 m -16 X s 286 468 m -16 X s 302 516 m -32 X s 286 564 m -16 X s 286 612
 m -16 X s 286 660 m -16 X s 302 708 m -32 X s 286 756 m -16 X s 286 804 m -16 X
 s 286 852 m -16 X s 302 900 m -32 X s 286 948 m -16 X s 286 996 m -16 X s 286
 1045 m -16 X s 302 1093 m -32 X s 286 1141 m -16 X s 286 1189 m -16 X s 286
 1237 m -16 X s 302 1285 m -32 X s 286 1333 m -16 X s 286 1381 m -16 X s 286
 1429 m -16 X s 302 1477 m -32 X s 302 1477 m -32 X s 286 1525 m -16 X s 286
 1573 m -16 X s 286 1621 m -16 X s 270 323 m 1489 X s 270 356 m -33 Y s 311 340
 m -17 Y s 352 340 m -17 Y s 394 340 m -17 Y s 435 356 m -33 Y s 476 340 m -17 Y
 s 518 340 m -17 Y s 559 340 m -17 Y s 601 356 m -33 Y s 642 340 m -17 Y s 683
 340 m -17 Y s 725 340 m -17 Y s 766 356 m -33 Y s 808 340 m -17 Y s 849 340 m
 -17 Y s 890 340 m -17 Y s 932 356 m -33 Y s 973 340 m -17 Y s 1014 340 m -17 Y
 s 1056 340 m -17 Y s 1097 356 m -33 Y s 1139 340 m -17 Y s 1180 340 m -17 Y s
 1221 340 m -17 Y s 1263 356 m -33 Y s 1304 340 m -17 Y s 1345 340 m -17 Y s
 1387 340 m -17 Y s 1428 356 m -33 Y s 1470 340 m -17 Y s 1511 340 m -17 Y s
 1552 340 m -17 Y s 1594 356 m -33 Y s 1635 340 m -17 Y s 1676 340 m -17 Y s
 1718 340 m -17 Y s 1759 356 m -33 Y s 1489 1345 270 323 C [4 8] 0 sd 5 lw 0 0.5
 0 c 271 1263 m 4 7 d 4 7 d 4 5 d 3 2 d 4 -2 d 4 -1 d 3 X 4 2 d 4 X 4 -5 d 3 -7
 d 4 -8 d 4 -9 d 4 -11 d 3 -13 d 4 -14 d 4 -15 d 3 -17 d 4 -18 d 4 -19 d 4 -21 d
 3 -21 d 4 -23 d 4 -24 d 4 -24 d 3 -25 d 4 -26 d 4 -26 d 3 -27 d 4 -27 d 4 -27 d
 4 -28 d 3 -27 d 4 -27 d 4 -27 d 3 -26 d 4 -26 d 4 -26 d 4 -25 d 3 -24 d 4 -23 d
 4 -23 d 4 -21 d 3 -21 d 4 -20 d 4 -18 d 3 -18 d 4 -16 d 4 -16 d s 454 464 m 2
 -9 d 2 -5 d 2 -9 d 1 -4 d 3 -9 d 1 -4 d 3 -7 d 1 -4 d 2 -7 d 2 -3 d 2 -7 d 1 -3
 d 3 -6 d 1 -2 d 3 -6 d 1 -2 d 3 -5 d -2 Y 3 -5 d 1 -1 d 3 -5 d 1 -1 d 3 -4 d 1
 -1 d 3 -4 d 4 -4 d 4 -3 d 3 -3 d 4 -2 d 4 -2 d 4 -2 d 3 -2 d 4 -1 d 4 -1 d 4 -1
 d 3 -1 d 4 -1 d 4 X 3 -1 d 8 X 4 -1 d 48 X 4 -1 d 18 X s 636 323 m 30 X 4 1 d
 48 X 4 1 d 8 X 3 1 d 4 X 4 1 d 3 1 d 4 1 d 4 1 d 4 1 d 3 2 d 4 2 d 4 2 d 3 2 d
 4 3 d 3 3 d 1 X 3 3 d 1 1 d 2 3 d 1 1 d 3 4 d 1 1 d 3 4 d 1 2 d 2 4 d 2 2 d 2 4
 d 1 3 d 3 5 d 1 3 d 2 5 d 2 3 d 2 5 d 1 5 d 3 5 d 1 5 d 2 6 d 2 5 d s 819 424 m
 4 13 d 3 13 d 4 14 d 4 16 d 4 16 d 3 18 d 4 18 d 4 20 d 3 21 d 4 21 d 4 23 d 4
 23 d 3 24 d 4 25 d 4 26 d 3 26 d 4 26 d 4 27 d 4 27 d 3 27 d 4 28 d 4 27 d 4 27
 d 3 27 d 4 26 d 4 26 d 3 25 d 4 24 d 4 24 d 4 23 d 3 21 d 4 21 d 4 19 d 4 18 d
 3 17 d 4 15 d 4 14 d 3 13 d 4 11 d 4 9 d 4 8 d 3 7 d 4 5 d 4 X 3 -2 d 4 X 4 1 d
 4 2 d 2 -1 d 1 -1 d s 1001 1282 m 4 -5 d 4 -7 d 4 -7 d 3 -9 d 4 -10 d 4 -11 d 3
 -12 d 4 -13 d 4 -14 d 4 -15 d 3 -16 d 4 -16 d 4 -18 d 4 -18 d 3 -18 d 4 -19 d 4
 -20 d 3 -20 d 4 -20 d 4 -21 d 4 -21 d 3 -21 d 4 -21 d 4 -21 d 3 -22 d 4 -21 d 4
 -21 d 4 -22 d 3 -21 d 4 -20 d 4 -21 d 4 -20 d 3 -20 d 4 -19 d 4 -19 d 3 -19 d 4
 -18 d 4 -17 d 3 -16 d 1 -1 d 2 3 d 1 7 d 2 8 d 2 9 d 4 18 d 4 19 d 3 18 d 4 20
 d 4 20 d 3 20 d 4 20 d 4 21 d s 1184 795 m 4 21 d 3 21 d 4 21 d 4 21 d 3 21 d 4
 22 d 4 21 d 4 21 d 3 21 d 4 20 d 4 21 d 4 20 d 3 19 d 4 19 d 4 19 d 3 18 d 4 17
 d 4 17 d 4 16 d 3 15 d 4 15 d 4 13 d 4 13 d 3 11 d 4 11 d 4 9 d 3 8 d 4 7 d 4 6
 d 3 4 d 1 1 d 2 X 1 -1 d 4 -2 d 4 X 3 1 d 4 3 d 2 -2 d 2 -2 d 4 -6 d 3 -7 d 4
 -9 d 4 -10 d 4 -12 d 3 -13 d 4 -15 d 4 -16 d 3 -18 d 4 -19 d 4 -20 d 4 -22 d 3
 -22 d s 1366 1092 m 4 -24 d 4 -24 d 4 -25 d 3 -26 d 1 -9 d 2 -10 d -4 Y 1 -3 d
 -1 Y 1 -2 d -1 Y 1 X 1 1 d 1 2 d 3 Y 1 4 d 1 7 d 1 11 d 2 Y 4 26 d 4 25 d 4 24
 d 3 24 d 4 22 d 4 22 d 3 20 d 4 17 d 2 Y 3 15 d 1 3 d 3 13 d 1 3 d 3 12 d 3 Y 3
 11 d 1 2 d 3 10 d 1 2 d 3 8 d 1 2 d 2 7 d 1 2 d 3 6 d 1 1 d 3 5 d 1 1 d 2 3 d 1
 1 d 4 -3 d 3 -1 d 5 X 3 2 d 3 1 d 1 X 2 -2 d 2 -3 d 4 -6 d 3 -7 d 4 -8 d 4 -9 d
 3 -11 d 4 -11 d 4 -13 d 4 -13 d 3 -15 d 4 -15 d 4 -16 d 3 -17 d 4 -17 d 4 -18 d
 4 -19 d 3 -19 d 4 -19 d 4 -20 d s 1549 1026 m 4 -21 d 3 -20 d 4 -21 d 4 -21 d 3
 -21 d 4 -22 d 4 -21 d 4 -21 d 3 -21 d 4 -21 d 4 -21 d 4 -21 d 3 -20 d 4 -20 d 4
 -20 d 3 -20 d 4 -18 d 4 -19 d 4 -18 d 3 -16 d -1 Y 3 -9 d -1 Y 1 X 1 1 d 3 Y 3
 13 d 3 17 d 4 18 d 4 19 d 4 19 d 3 19 d 4 20 d 4 20 d 4 21 d 3 20 d 4 21 d 4 22
 d 3 21 d 4 21 d 4 22 d 4 21 d 3 21 d 4 21 d 4 21 d 4 21 d 3 20 d 4 20 d 4 20 d
 3 19 d 4 18 d 4 18 d 4 18 d 3 16 d s 1731 1163 m 2 9 d 2 7 d 2 8 d 2 7 d 2 7 d
 1 7 d 2 7 d 2 6 d 2 6 d 2 6 d 2 5 d 2 6 d 1 5 d 2 5 d s [12 12] 0 sd 0.8 0 0 c
 273 390 m 8 1 d 7 X 8 1 d 7 X 8 1 d 7 X 7 1 d 8 X 7 1 d 8 X 7 1 d 8 X 7 1 d 15
 X 7 1 d 45 X 6 -1 d 7 X 2 -1 d 6 X 1 -1 d 6 X 2 -1 d 6 -1 d 1 X 7 -1 d 1 X 7 -2
 d 8 -2 d 7 -1 d 8 -2 d 7 -2 d 8 -2 d 7 -1 d 7 -2 d 8 -2 d 7 -1 d 8 -2 d 7 -2 d
 8 -1 d 7 -1 d 8 -2 d 7 -1 d 6 -1 d 9 X 7 -1 d 15 X s 638 364 m 15 X 8 -1 d 7 X
 8 -1 d 7 X 7 -1 d 8 -1 d 7 X 8 -1 d 7 -1 d 8 X 7 -1 d 8 -1 d 7 -1 d 7 -1 d 5 X
 3 1 d 7 X 8 1 d 7 1 d 8 X 7 1 d 8 1 d 7 X 7 1 d 8 1 d 7 X 8 1 d 7 X 8 1 d 7 1 d
 8 X 7 1 d 15 X 7 1 d 15 X 8 1 d 4 X 2 1 d 1 X 2 1 d 2 2 d 4 4 d 4 4 d 3 4 d 4 4
 d 4 4 d 3 5 d 4 5 d 4 5 d 3 6 d 4 6 d 4 6 d 3 6 d 4 8 d 4 7 d 4 8 d 3 7 d 4 9 d
 s 1003 469 m 8 19 d 7 20 d 8 21 d 7 23 d 7 25 d 8 26 d 7 27 d 8 29 d 7 30 d 8
 31 d 7 32 d 8 33 d 7 33 d 8 34 d 7 33 d 7 35 d 8 34 d 7 34 d 8 34 d 7 34 d 8 33
 d 7 33 d 8 33 d 7 33 d 7 31 d 8 32 d 2 10 d 3 15 d 1 6 d 1 3 d 2 -1 d 1 -5 d 5
 -21 d 7 -30 d 8 -29 d 7 -28 d 8 -28 d 7 -28 d 7 -26 d 8 -27 d 7 -25 d 8 -25 d 7
 -24 d 8 -24 d 7 -23 d 8 -22 d 7 -22 d 8 -21 d 7 -21 d 7 -20 d 8 -20 d 7 -18 d 8
 -19 d 7 -17 d s 1368 761 m 8 -18 d 7 -16 d 8 -16 d 7 -16 d 7 -15 d 8 -15 d 7
 -14 d 8 -13 d 7 -13 d 8 -13 d 7 -12 d 8 -12 d 7 -12 d 7 -11 d 8 -10 d 7 -11 d 8
 -10 d 7 -9 d 7 -9 d 1 X 2 -1 d 5 X 8 1 d 7 2 d 8 1 d 7 X 7 1 d 8 X 7 1 d 8 X 7
 -1 d 8 -1 d 7 -1 d 8 -1 d 7 -2 d 7 -2 d 8 -3 d 7 -4 d 8 -4 d 7 -4 d 8 -5 d 7 -5
 d 8 -6 d 7 -7 d 7 -7 d 8 -7 d 7 -8 d 8 -8 d 7 -8 d 8 -8 d 7 -7 d s 1733 422 m 5
 -6 d 3 -2 d 1 -1 d 2 -2 d 1 -1 d 1 -1 d 1 -1 d -1 Y 1 -1 d 1 -1 d 1 -2 d 1 -1 d
 1 -2 d 1 -2 d 1 -2 d -1 Y 1 -2 d 1 -1 d s [12 15 4 15] 0 sd 0 0 0.9 c 273 735 m
 4 -19 d 4 -16 d 3 -14 d 3 -14 d 1 -3 d 8 -35 d 1 -7 d 5 -15 d 1 -3 d 5 -18 d 3
 -10 d 7 -29 d 2 -7 d 4 -12 d 1 -4 d 6 -23 d 2 -6 d -1 Y 2 -5 d 4 -9 d 1 -4 d 2
 -6 d 5 -22 d 1 -1 d 2 -7 d 5 -12 d 8 -18 d 7 -18 d 3 -5 d 5 -7 d 7 -11 d 7 -10
 d 7 -7 d 1 -2 d 7 -7 d 8 -6 d 6 -3 d 1 -1 d 8 -2 d 7 -5 d 5 -2 d 3 -1 d 7 1 d 7
 -1 d 8 -1 d 7 -2 d 8 -1 d 7 X 8 1 d 7 -1 d 23 X 7 -1 d 7 1 d 30 X 8 -1 d 59 X s
 638 323 m 75 X 7 1 d 23 X 7 -1 d 7 1 d 45 X 8 2 d 6 1 d 1 X 7 -1 d 5 1 d 3 1 d
 7 2 d 8 2 d 7 3 d 8 3 d 6 4 d 1 1 d 8 6 d 7 6 d 5 5 d 3 3 d 3 6 d 4 6 d 7 13 d
 8 12 d 5 10 d 2 4 d 2 6 d 4 14 d 2 4 d 2 3 d 4 9 d 1 2 d 2 5 d 2 9 d 3 10 d 1 2
 d 7 22 d 7 18 d 1 4 d 1 6 d 4 17 d 2 9 d 7 27 d 8 28 d 7 28 d 8 30 d 5 19 d 2 8
 d s 1003 694 m 6 28 d 2 5 d 7 29 d 8 30 d 7 30 d 5 22 d 2 15 d 5 29 d 3 16 d 7
 49 d 7 43 d 1 3 d 1 14 d 5 49 d 1 8 d 8 63 d 2 20 d 4 55 d 1 10 d 2 20 d 2 28 d
 1 12 d 1 7 d 1 4 d 1 2 d -1 Y 1 -3 d 2 -8 d 4 -41 d 8 -72 d 5 -47 d 2 -20 d 5
 -41 d 2 -18 d 4 -23 d 4 -24 d 7 -48 d 8 -42 d 7 -47 d 3 -14 d 5 -19 d 7 -36 d 8
 -37 d 7 -35 d 7 -33 d 6 -22 d 2 -5 d 7 -25 d 8 -26 d 7 -21 d 8 -24 d 7 -23 d 8
 -19 d 7 -21 d 7 -15 d 8 -18 d 7 -16 d 8 -11 d 7 -11 d 8 -12 d 7 -8 d 8 -10 d 7
 -5 d 8 -8 d 7 -7 d 7 -6 d 8 -4 d 7 -3 d 8 -3 d 7 -4 d s 1368 349 m 8 -4 d 7 -5
 d 8 3 d 7 1 d 7 6 d 8 1 d 7 1 d 8 8 d 7 5 d 8 3 d 7 8 d 8 3 d 7 10 d 7 9 d 8 6
 d 7 12 d 8 7 d 3 7 d 4 10 d 8 18 d 7 16 d 8 15 d 7 20 d 8 20 d 7 22 d 7 24 d 8
 22 d 7 21 d 5 16 d 3 14 d 7 28 d 8 37 d 7 30 d 8 34 d 7 31 d 2 13 d 5 33 d 6 35
 d 2 8 d 7 37 d 5 27 d 3 19 d 3 21 d 4 40 d 6 53 d 2 9 d 7 52 d 2 14 d 2 26 d 2
 27 d 1 12 d 1 3 d 3 26 d 1 8 d 1 5 d 1 1 d 1 -1 d 1 -3 d 1 -7 d 5 -67 d 8 -85 d
 1 -14 d 6 -43 d 8 -62 d 4 -29 d 3 -24 d 4 -22 d 4 -20 d 7 -44 d s 1733 856 m 2
 -9 d 1 -8 d 2 -8 d 1 -7 d 2 -7 d -3 Y 2 -4 d 1 -7 d 2 -6 d 1 -3 d -3 Y 1 -4 d 1
 -6 d 1 -5 d 1 -7 d 2 -7 d 1 -7 d 1 -8 d 1 -5 d s [] 0 sd 7 lw 948 628 m 116 X s
 1098 628 m 115 X s 948 611 m 34 Y s 1213 611 m 34 Y s /w 34
 def /w2 {w 2 div} def /w3 {w 3 div} def 1081 628 m20 NC 1 lw black 270 323 m
 1345 Y s 302 323 m -32 X s 286 372 m -16 X s 286 420 m -16 X s 286 468 m -16 X
 s 302 516 m -32 X s 286 564 m -16 X s 286 612 m -16 X s 286 660 m -16 X s 302
 708 m -32 X s 286 756 m -16 X s 286 804 m -16 X s 286 852 m -16 X s 302 900 m
 -32 X s 286 948 m -16 X s 286 996 m -16 X s 286 1045 m -16 X s 302 1093 m -32 X
 s 286 1141 m -16 X s 286 1189 m -16 X s 286 1237 m -16 X s 302 1285 m -32 X s
 286 1333 m -16 X s 286 1381 m -16 X s 286 1429 m -16 X s 302 1477 m -32 X s 302
 1477 m -32 X s 286 1525 m -16 X s 286 1573 m -16 X s 286 1621 m -16 X s 270 323
 m 1489 X s 270 356 m -33 Y s 311 340 m -17 Y s 352 340 m -17 Y s 394 340 m -17
 Y s 435 356 m -33 Y s 476 340 m -17 Y s 518 340 m -17 Y s 559 340 m -17 Y s 601
 356 m -33 Y s 642 340 m -17 Y s 683 340 m -17 Y s 725 340 m -17 Y s 766 356 m
 -33 Y s 808 340 m -17 Y s 849 340 m -17 Y s 890 340 m -17 Y s 932 356 m -33 Y s
 973 340 m -17 Y s 1014 340 m -17 Y s 1056 340 m -17 Y s 1097 356 m -33 Y s 1139
 340 m -17 Y s 1180 340 m -17 Y s 1221 340 m -17 Y s 1263 356 m -33 Y s 1304 340
 m -17 Y s 1345 340 m -17 Y s 1387 340 m -17 Y s 1428 356 m -33 Y s 1470 340 m
 -17 Y s 1511 340 m -17 Y s 1552 340 m -17 Y s 1594 356 m -33 Y s 1635 340 m -17
 Y s 1676 340 m -17 Y s 1718 340 m -17 Y s 1759 356 m -33 Y s 1489 1345 270 323
 C NC 1759 323 m 1345 Y s 1727 323 m 32 X s 1743 372 m 16 X s 1743 420 m 16 X s
 1743 468 m 16 X s 1727 516 m 32 X s 1743 564 m 16 X s 1743 612 m 16 X s 1743
 660 m 16 X s 1727 708 m 32 X s 1743 756 m 16 X s 1743 804 m 16 X s 1743 852 m
 16 X s 1727 900 m 32 X s 1743 948 m 16 X s 1743 996 m 16 X s 1743 1045 m 16 X s
 1727 1093 m 32 X s 1743 1141 m 16 X s 1743 1189 m 16 X s 1743 1237 m 16 X s
 1727 1285 m 32 X s 1743 1333 m 16 X s 1743 1381 m 16 X s 1743 1429 m 16 X s
 1727 1477 m 32 X s 1727 1477 m 32 X s 1743 1525 m 16 X s 1743 1573 m 16 X s
 1743 1621 m 16 X s 270 323 m 1489 X s 270 356 m -33 Y s 311 340 m -17 Y s 352
 340 m -17 Y s 394 340 m -17 Y s 435 356 m -33 Y s 476 340 m -17 Y s 518 340 m
 -17 Y s 559 340 m -17 Y s 601 356 m -33 Y s 642 340 m -17 Y s 683 340 m -17 Y s
 725 340 m -17 Y s 766 356 m -33 Y s 808 340 m -17 Y s 849 340 m -17 Y s 890 340
 m -17 Y s 932 356 m -33 Y s 973 340 m -17 Y s 1014 340 m -17 Y s 1056 340 m -17
 Y s 1097 356 m -33 Y s 1139 340 m -17 Y s 1180 340 m -17 Y s 1221 340 m -17 Y s
 1263 356 m -33 Y s 1304 340 m -17 Y s 1345 340 m -17 Y s 1387 340 m -17 Y s
 1428 356 m -33 Y s 1470 340 m -17 Y s 1511 340 m -17 Y s 1552 340 m -17 Y s
 1594 356 m -33 Y s 1635 340 m -17 Y s 1676 340 m -17 Y s 1718 340 m -17 Y s
 1759 356 m -33 Y s 1489 1345 270 323 C 1816 1703 0 0 C [4 8] 0 sd 7 lw 0 0.5 0
 c 704 1538 m 113 X s
 gsave  840 1517
 t   0 r 0 0 m
 /Helvetica findfont   67 sf 0    0 m 
(B)
 show 
 currentpoint pop 0 t 
 /Helvetica findfont   47 sf 0   34 m 
(\040)
 show 
 currentpoint pop 0 t 
 /Special findfont   67 sf 0    0 m 
(5)
 show 
 currentpoint pop 0 t 
 /Helvetica findfont   47 sf 0   34 m 
(\040)
 show 
 currentpoint pop 0 t 
 /Symbol findfont   67 sf 0    0 m 
(p)
 show 
 currentpoint pop 0 t 
 /Symbol findfont   67 sf 0    0 m 
(p)
 show 
 gr  [12 12] 0 sd 0.8 0 0 c 704 1447 m 113 X s
 gsave  840 1427
 t   0 r 0 0 m
 /Helvetica findfont   67 sf 0    0 m 
(B)
 show 
 currentpoint pop 0 t 
 /Helvetica findfont   47 sf 0   34 m 
(\040)
 show 
 currentpoint pop 0 t 
 /Special findfont   67 sf 0    0 m 
(5)
 show 
 currentpoint pop 0 t 
 /Helvetica findfont   47 sf 0   34 m 
(\040)
 show 
 currentpoint pop 0 t 
 /Symbol findfont   67 sf 0    0 m 
(r)
 show 
 currentpoint pop 0 t 
 /Symbol findfont   67 sf 0    0 m 
(p)
 show 
 gr  [12 15 4 15] 0 sd 0 0 0.9 c 704 1356 m 113 X s
 gsave  840 1336
 t   0 r 0 0 m
 /Helvetica findfont   67 sf 0    0 m 
(B)
 show 
 currentpoint pop 0 t 
 /Helvetica findfont   47 sf 0   34 m 
(\040)
 show 
 currentpoint pop 0 t 
 /Special findfont   67 sf 0    0 m 
(5)
 show 
 currentpoint pop 0 t 
 /Helvetica findfont   47 sf 0   34 m 
(\040)
 show 
 currentpoint pop 0 t 
 /Symbol findfont   67 sf 0    0 m 
(r)
 show 
 currentpoint pop 0 t 
 /Symbol findfont   67 sf 0    0 m 
(r)
 show 
 gr  1 lw [] 0 sd 0.6 1 0.2 c 102 41 1226 1427 bf 5 lw 0 0.7 0 c 102 41 1226
 1427 bl black
 gsave  1362 1427
 t   0 r 0 0 m
 /Helvetica findfont   67 sf 0    0 m 
(Combined)
 show 
 gr  1489 1345 270 323 C 7 lw 0 0 0.9 c 1217 1362 m 39 X s 1290 1362 m 39 X s
 1217 1345 m 34 Y s 1329 1345 m 34 Y s 1273 1362 m20 1816 1703 0 0 C black
 gsave  1362 1336
 t   0 r 0 0 m
 /Helvetica findfont   67 sf 0    0 m 
(CKM fit)
 show 
 gr 
 /xs 0 def 
(a)
 /Symbol     67 stwn 
(    \(deg\))
 /Helvetica     67 stwn 
 gsave  1014 127
 t   0 r  xs 2 div neg 0 t 0 0 m
 /Symbol findfont   67 sf 0    0 m 
(a)
 show 
 currentpoint pop 0 t 
 /Helvetica findfont   67 sf 0    0 m 
(    \(deg\))
 show 
 gr 
 /xs 0 def 
(1 \261 CL)
 /Helvetica     67 stwn 
 gsave  77 996
 t  90 r  xs 2 div neg 0 t 0 0 m
 /Helvetica findfont   67 sf 0    0 m 
(1 \261 CL)
 show 
 gr  1489 1345 270 323 C 6 lw 1 1 1 c 270 1292 m 1489 X s 0.6 0.6 0 c 270 1285 m
 1489 X s 10 lw 0.8 0.8 1 c 270 1285 m 1489 X s 1 lw black 270 1285 m 1489 X s
 1816 1703 0 0 C 0.9 0.9 0.9 c 279 90 1371 1525 bf 8 lw 0.8 0 0 c 279 90 1371
 1525 bl 1 lw 0.9 0.9 0.9 c 279 90 1371 1525 bf 2 lw 0 0 0.9 c 279 90 1371 1525
 bl
 /xs 0 def 
(WA)
 /Helvetica     67 stwn 
 gsave  1507 1544
 t   0 r  xs 2 div neg 0 t 0 0 m
 /Helvetica findfont   67 sf 0    0 m 
(WA)
 show 
 gr  1489 1345 270 323 C 1816 1703 0 0 C 1 lw 1 1 1 c 204 87 382 1506 bf 0 0 0.9
 c 200 53 386 1540 bf 4 87 382 1506 bf 200 4 386 1506 bf 1 1 1 c
 /xs 0 def 
(C)
 /Helvetica-Oblique     51 stwn 
 gsave  425 1547
 t   0 r  xs 2 div neg 0 t 0 0 m
 /Helvetica-Oblique findfont   51 sf 0    0 m 
(C)
 show 
 gr 
 /xs 0 def 
(K)
 /Helvetica-Oblique     51 stwn 
 gsave  468 1547
 t   0 r  xs 2 div neg 0 t 0 0 m
 /Helvetica-Oblique findfont   51 sf 0    0 m 
(K)
 show 
 gr 
 /xs 0 def 
(M)
 /Helvetica-Oblique     51 stwn 
 gsave  515 1547
 t   0 r  xs 2 div neg 0 t 0 0 m
 /Helvetica-Oblique findfont   51 sf 0    0 m 
(M)
 show 
 gr  0 0 0.9 c
 /xs 0 def 
(f i t t e r)
 /Helvetica     36 stwn 
 gsave  506 1512
 t   0 r  xs 2 div neg 0 t 0 0 m
 /Helvetica findfont   36 sf 0    0 m 
(f i t t e r)
 show 
 gr  0.8 0.8 1 c 204 -41 382 1504 bf 0 0 0.9 c
 /xs 0 def 
(Moriond 05)
 /Helvetica     36 stwn 
 gsave  484 1470
 t   0 r  xs 2 div neg 0 t 0 0 m
 /Helvetica findfont   36 sf 0    0 m 
(Moriond 05)
 show 
 gr  1489 1345 270 323 C
 gr  gr 
showpage
end
%%EOF
